\relax 
\citation{biosensor:basics}
\citation{biosensor:basics}
\citation{biosensor:basics}
\citation{cgm:overview}
\citation{cgm:isf}
\citation{cgm:overview}
\citation{cgm:overview}
\citation{biosensor:basics}
\citation{book}
\citation{cgm:overview}
\citation{electrochem:commercial}
\citation{cgm:overview}
\citation{book}
\citation{cgm:overview}
\citation{cgm:noninvasive}
\citation{nir:methods}
\citation{nir:methods}
\citation{nir:methods}
\citation{nir:methods}
\citation{nir:methods}
\@writefile{toc}{\contentsline {section}{\numberline {1}Introduction}{1}}
\@writefile{toc}{\contentsline {section}{\numberline {2}Optical Glucose Biosensors}{1}}
\newlabel{NIR}{{2}{1}}
\@writefile{toc}{\contentsline {subsection}{\numberline {2.1}Detection Method}{1}}
\citation{nir:methods}
\citation{nir:methods}
\citation{cgm:isf}
\citation{cgm:overview}
\citation{cgm:overview}
\citation{cgm:overview}
\citation{cgm:overview}
\citation{nir:methods}
\citation{nir:methods}
\citation{nir:methods}
\citation{nir:methods}
\citation{cgm:isf}
\citation{electrochem:commercial}
\citation{nir:cost}
\citation{nir:methods}
\citation{nir:methods}
\citation{cgm:isf}
\@writefile{lof}{\contentsline {figure}{\numberline {1}{\ignorespaces Spectra of major biochemical analytes in the NIR spectrum. Adapted from \cite  {nir:methods}\relax }}{2}}
\providecommand*\caption@xref[2]{\@setref\relax\@undefined{#1}}
\newlabel{fig:nir_spectra}{{1}{2}}
\@writefile{toc}{\contentsline {subsection}{\numberline {2.2}Evaluation}{2}}
\citation{book}
\citation{electrochem:commercial}
\citation{book}
\citation{zhu}
\citation{electrochem:generations}
\citation{electrochem:generations}
\citation{cgm:overview}
\citation{cgm:overview}
\citation{electrochem:generations}
\citation{biosensor:basics}
\citation{cgm:overview}
\citation{electrochem:generations}
\citation{cgm:overview}
\citation{cgm:overview}
\citation{biosensor:basics}
\citation{cgm:overview}
\citation{cgm:overview}
\citation{cgm:overview}
\citation{cgm:overview}
\citation{cgm:overview}
\@writefile{toc}{\contentsline {section}{\numberline {3}Electrochemical Glucose Biosensors}{3}}
\newlabel{Electrochemical}{{3}{3}}
\@writefile{toc}{\contentsline {subsection}{\numberline {3.1}Detection Method}{3}}
\@writefile{lof}{\contentsline {figure}{\numberline {2}{\ignorespaces $1$st generation basic structure and \textit  {Redox} equations. Adapted from\cite  {cgm:overview}\relax }}{3}}
\newlabel{fig:electrochem_1}{{2}{3}}
\@writefile{lof}{\contentsline {figure}{\numberline {3}{\ignorespaces $2$nd generation basic structure and \textit  {Redox} equations. Adapted from\cite  {cgm:overview}\relax }}{3}}
\newlabel{fig:electrochem_2}{{3}{3}}
\citation{cgm:overview}
\citation{cgm:overview}
\citation{cgm:overview}
\citation{cgm:overview}
\citation{cgm:overview}
\citation{cgm:overview}
\citation{cgm:overview}
\citation{cgm:overview}
\citation{cgm:overview}
\citation{cgm:overview}
\citation{electrochem:evaluation}
\citation{cgm:overview}
\@writefile{lof}{\contentsline {figure}{\numberline {4}{\ignorespaces $3$rd generation basic structure and \textit  {Redox} equations. Adapted from\cite  {cgm:overview}\relax }}{4}}
\newlabel{fig:electrochem_3}{{4}{4}}
\@writefile{lof}{\contentsline {figure}{\numberline {5}{\ignorespaces $4$th generation basic structure and \textit  {Redox} equations. Adapted from\cite  {cgm:overview}\relax }}{4}}
\newlabel{fig:electrochem_4}{{5}{4}}
\@writefile{toc}{\contentsline {subsection}{\numberline {3.2}Evaluation}{4}}
\@writefile{toc}{\contentsline {section}{\numberline {4}Comparison}{4}}
\citation{electrochem:evaluation}
\@writefile{toc}{\contentsline {section}{\numberline {5}Strengths, Weaknesses, Opportunities and Threats}{5}}
\@writefile{lof}{\contentsline {figure}{\numberline {6}{\ignorespaces SWOT for NIR Absorption spectrometry and Electrochemical sensors\relax }}{5}}
\newlabel{fig:swot}{{6}{5}}
\@writefile{toc}{\contentsline {section}{\numberline {6}Summary}{5}}
\bibcite{cgm:overview}{1}
\bibcite{cgm:isf}{2}
\bibcite{biosensor:basics}{3}
\bibcite{cgm:noninvasive}{4}
\bibcite{nir:methods}{5}
\bibcite{nir:cost}{6}
\bibcite{electrochem:commercial}{7}
\bibcite{electrochem:generations}{8}
\bibcite{electrochem:evaluation}{9}
\bibcite{zhu}{10}
\bibcite{book}{11}
